{
  "locales": [
    "fr",
    "en",
    "es",
    "de"
  ],
  "name": {
    "fr": "Fever!",
    "en": "Fever",
    "es": "Fever",
    "de": "Fever"
  },
  "url": {
    "fr": "http://fever.muxxu.com/",
    "en": "http://fever.en.muxxu.com/",
    "es": "http://fever.es.muxxu.com/",
    "de": "http://fever.de.muxxu.com/"
  },
  "tagline": {
    "fr": "Des centaines de minijeux délirants en tout genre.",
    "en": "Hundreds of mini-games of every type make a mega-adventure",
    "es": "Una divertida secuencia de frenéticos minijuegos",
    "de": "Hilf Pusty, dem Pinguin, seine Welt zu retten!"
  },
  "description": {
    "fr": [
      "Plus de <strong>100 mini-jeux</strong> pour une maxi-aventure !",
      "L'archipel de Pousty le pingouin est envahi ! Aidez-le à repousser l'envahisseur : parcourez le monde et défiez vos ennemis dans des mini-jeux à un rythme effréné."
    ],
    "en": [
      "Over <strong>100 mini-games</strong> making for a mega-adventure!",
      "Pousty the penguin's islands have been invaded! Help him to repel the invaders: explore the world and challenge your enemies in mini-games at breakneck speed."
    ],
    "es": [
      "¡Lo que necesitas es una buena dosis de rapidez mental!",
      "Ayuda a Pousty a eliminar a sus enemigos lanzándote en una cadena de frenéticos juegos que pondrán a prueba tu habilidad."
    ],
    "de": [
      "Pusty der Pinguin leidet unter der Wärme. Hilf ihm, seine Feinde in über 100 Minispielen zu besiegen und so das Klima in seiner Heimat wiederherzustellen."
    ]
  },
  "favicon": "favicon.ico",
  "cover": "cover.png",
  "banner": false,
  "screenshots": {
    "fr": [
      "screenshots/island1.png",
      "screenshots/minigames.png",
      "screenshots/minigame1.png",
      "screenshots/inventory.png",
      "screenshots/island2.png",
      "screenshots/minigame2.png"
    ],
    "en": [
      "screenshots/island1.png",
      "screenshots/minigames.png",
      "screenshots/minigame1.png",
      "screenshots/inventory.png",
      "screenshots/island2.png",
      "screenshots/minigame2.png"
    ],
    "es": [
      "screenshots/minigames.png",
      "screenshots/island2.png",
      "screenshots/island3.png",
      "screenshots/island4.png",
      "screenshots/inventory.png",
      "screenshots/minigame3.png"
    ],
    "de": [
      "screenshots/island1.png",
      "screenshots/minigame2.png",
      "screenshots/minigames.png",
      "screenshots/minigame1.png",
      "screenshots/island2.png",
      "screenshots/inventory.png"
    ]
  }
}