{
  "locales": [
    "fr",
    "en",
    "es",
    "de"
  ],
  "name": "Rockfaller Journey",
  "url": "https://rockfaller.com/",
  "tagline": {
    "fr": "Voyagez jusqu'au centre de la Terre !",
    "en": "Puzzle to the centre of the Earth!",
    "es": "Rompecabeza hacia el centro de la Tierra.",
    "de": "Puzzle dich zum Zentrum der Erde!"
  },
  "description": {
    "fr": [
      "Assemblez des groupes de 4 éléments et collectionnez des trésors rares dans ce puzzle game d'aventure !"
    ],
    "en": [
      "Match groups of 4 precious elements &amp; collect treasures on a puzzle adventure!"
    ],
    "es": [
      "¡Combina grupos de 4 minerales preciosos y recoge tesoros en una aventura de rompecabezas!"
    ],
    "de": [
      "Stelle Gruppen 4 wertvoller Elemente zusammen &amp; sammle Schätze auf einem Puzzle-Abenteuer!"
    ]
  },
  "favicon": "favicon.ico",
  "cover": "cover.png",
  "banner": false,
  "screenshots": {
    "fr": [
      "screenshots/screen1.fr.png",
      "screenshots/screen2.fr.png",
      "screenshots/screen3.fr.png",
      "screenshots/screen4.fr.png",
      "screenshots/screen5.fr.png"
    ],
    "en": [
      "screenshots/screen1.en.png",
      "screenshots/screen2.en.png",
      "screenshots/screen3.en.png",
      "screenshots/screen4.en.png",
      "screenshots/screen5.en.png"
    ],
    "es": [
      "screenshots/screen1.es.png",
      "screenshots/screen2.es.png",
      "screenshots/screen3.es.png",
      "screenshots/screen4.es.png",
      "screenshots/screen5.es.png"
    ],
    "de": [
      "screenshots/screen1.de.png",
      "screenshots/screen2.de.png",
      "screenshots/screen3.de.png",
      "screenshots/screen4.de.png",
      "screenshots/screen5.de.png"
    ]
  }
}