{
  "locales": [
    "fr",
    "en",
    "es",
    "de"
  ],
  "name": {
    "fr": "CroqueMotel",
    "en": "Monster Motel",
    "es": "MonstruHotel",
    "de": "MonsterHotel"
  },
  "url": {
    "fr": "http://hotel.muxxu.com/",
    "en": "http://hotel.en.muxxu.com/",
    "es": "http://hotel.es.muxxu.com/",
    "de": "http://hotel.de.muxxu.com/"
  },
  "tagline": {
    "fr": "Simulation gratuite d'hôtel où vos clients sont des monstres !",
    "en": "A free hotel simulation where all your guests are monsters!",
    "es": "Un juego de hoteles y monstruos con manías un poco destructivas",
    "de": "Ein Hotel nur für Monster! Und du bist der Hotelmanager!"
  },
  "description": {
    "fr": [
      "Une simulation hôtelière délirante dans laquelle vous créez et gérez votre propre hôtel pour monstres !",
      "Vos clients, des créatures issues de l'univers Croquemonster, vous en feront voir de toutes les couleurs..."
    ],
    "en": [
      "A crazy hotel simulation in which you build and manage your own hotel, where all your guests are monsters!",
      "Your clients all come from the Croquemonster universe, and you'll see them in all their glory..."
    ],
    "es": [
      "Administrar tu propio hotel para monstruos exigentes ¡puede ser el negocio de tu vida!",
      "Tus huéspedes te harán ganar una fortuna... o destruirán por completo tu hotel."
    ],
    "de": [
      "In MonsterHotel bist du der Manager eines Hotels für ganz spezielle Gäste."
    ]
  },
  "favicon": "favicon.ico",
  "cover": {
    "fr": "cover.fr.png",
    "en": "cover.en-es.png",
    "es": "cover.en-es.png",
    "de": "cover.de.png"
  },
  "banner": {
    "fr": false,
    "en": "banner.en.jpg",
    "es": "banner.es.jpg",
    "de": "banner.de.png"
  },
  "screenshots": {
    "fr": [
      "screenshots/hotel1.fr.jpg",
      "screenshots/skills.fr.jpg",
      "screenshots/hotel2.fr.jpg",
      "screenshots/hotel3.jpg"
    ],
    "en": [
      "screenshots/hotel4.en.jpg",
      "screenshots/laboratory.en.jpg",
      "screenshots/furnitures.en.jpg",
      "screenshots/shop.en.jpg"
    ],
    "es": [
      "screenshots/hotel5.es.jpg",
      "screenshots/skills.es.jpg",
      "screenshots/hotel2.es.jpg",
      "screenshots/hotel3.jpg",
      "screenshots/client.es.png",
      "screenshots/office.es.png"
    ],
    "de": [
      "screenshots/hotel6.de.jpg",
      "screenshots/home.de.jpg",
      "screenshots/office.de.jpg",
      "screenshots/shop.de.jpg"
    ]
  }
}