{
  "locales": [
    "fr",
    "en",
    "es",
    "de"
  ],
  "name": "Monster Hotel",
  "url": "https://monster-hotel.net/",
  "tagline": {
    "fr": "Prenez le contrôle de votre propre hôtel pour monstres !",
    "en": "Manage a hotel full of monsters and keep them happy! Or else...",
    "es": "¡Administra un hotel lleno de monstruos exigentes y mantenlos fe",
    "de": "Verwalte ein Hotel und stelle anspruchsvolle Monster zufrieden! D"
  },
  "description": {
    "fr": [
      "En construisant l’hôtel le plus classe du monde, vous vous attirerez une clientèle toujours plus riche (et barrée, en général) ! Plutôt gratte-ciel ou hôtel entièrement souterrain ? C’est comme vous voulez : soyez créatif et impressionnez vos amis !"
    ],
    "en": [
      "BUILD a classy hotel to encourage your guests to come and stay! Will it be the tallest tower of an underground bunker? How you construct your hotel is entirely up to you, build anything you can imagine and compare it with your friends!"
    ],
    "es": [
      "CONSTRUYE el hotel más estiloso que haga que tus huéspedes vengan ¡y se queden! ¿Será tu hotel un rascacielos o un palacio subterráneo? ¡Construye todo lo que se te ocurra y compáralo con tus amigos!"
    ],
    "de": [
      "BAUE das nobelste Hotel, zu dem deine Gäste gerne kommen und bleiben! Soll dein Hotel ein in die Höhe geschossener Turm oder doch eher ein ausschweifender Palast sein? Baue wie es dir gefällt und vergleiche es mit deinen Freunden!"
    ]
  },
  "favicon": "favicon.ico",
  "cover": "cover.png",
  "banner": false,
  "screenshots": {
    "fr": [
      "screenshots/screen1.fr.jpg",
      "screenshots/screen2.fr.jpg",
      "screenshots/screen3.fr.jpg",
      "screenshots/screen4.fr.jpg",
      "screenshots/screen5.fr.jpg"
    ],
    "en": [
      "screenshots/screen1.en.jpg",
      "screenshots/screen2.en.jpg",
      "screenshots/screen3.en.jpg",
      "screenshots/screen4.en.jpg",
      "screenshots/screen5.en.jpg"
    ],
    "es": [
      "screenshots/screen1.es.jpg",
      "screenshots/screen2.es.jpg",
      "screenshots/screen3.es.jpg",
      "screenshots/screen4.es.jpg",
      "screenshots/screen5.es.jpg"
    ],
    "de": [
      "screenshots/screen1.de.jpg",
      "screenshots/screen2.de.jpg",
      "screenshots/screen3.de.jpg",
      "screenshots/screen4.de.jpg",
      "screenshots/screen5.de.jpg"
    ]
  }
}