{
  "locales": [
    "fr"
  ],
  "name": "Odyssey",
  "url": "http://odyssey.muxxu.com/",
  "tagline": "Jeu alliant réflexion, quêtes et aventures dans l'Olympe !",
  "description": [
    "Explorez le monde de l'Olympe à la recherche de ses mystères les mieux cachés. Naviguez sur la Mer de Nuages et combattez les monstres à l'aide de vos runes magiques, afin d'accomplir la destinée de votre héros."
  ],
  "favicon": "favicon.ico",
  "cover": "cover.png",
  "banner": false,
  "screenshots": [
    "screenshots/screen1.fr.png",
    "screenshots/screen2.fr.png",
    "screenshots/screen3.fr.png",
    "screenshots/screen4.fr.png",
    "screenshots/screen5.fr.png",
    "screenshots/screen6.fr.png",
    "screenshots/screen7.fr.png",
    "screenshots/screen8.fr.png",
    "screenshots/screen9.fr.png"
  ]
}