{
  "locales": [
    "fr",
    "en",
    "es",
    "de"
  ],
  "name": "KadoKado",
  "url": "http://www.kadokado.com/",
  "tagline": {
    "fr": "Du fun, des jeux, et des cadeaux !",
    "en": "Play to win REAL prizes!",
    "es": "Juega y gana regalos de verdad",
    "de": "Spielen und ECHTE Geschenke gewinnen!"
  },
  "description": {
    "fr": [
      "<ul><li>Plus de 70 jeux exclusifs arcade ou stratégie à débloquer !</li><li>Des points KADO à échanger contre des chèques-cadeau !</li><li>Créé ton clan et bats toi en équipe dans une vraie communauté !</li></ul>"
    ],
    "en": [
      "Over 70 games to unblock.",
      "Earn and collect KADOpoints which you can exchange for Amazon vouchers!"
    ],
    "es": [
      "Más de 70 juegos exclusivos a desbloquear.",
      "¡Acumula todos los puntos KADO que puedasy canjéalos con cheques regalo de Amazon!"
    ],
    "de": [
      "Über 70 freischaltbare Titel.",
      "Spiele und gewinne Kado-Punkte und tausche sie gegen Amazon-Gutscheine ein!",
      "Jeden Tag 4 Partien gratis."
    ]
  },
  "favicon": "favicon.ico",
  "cover": "cover.png",
  "banner": "banner.jpg",
  "screenshots": {
    "fr": [
      "screenshots/screen1.fr.png",
      "screenshots/screen2.fr.png",
      "screenshots/screen3.fr.png",
      "screenshots/screen4.fr.png",
      "screenshots/screen5.fr.png",
      "screenshots/screen6.fr.png",
      "screenshots/screen7.fr.png",
      "screenshots/screen8.fr.png",
      "screenshots/screen9.fr.png",
      "screenshots/screen10.fr.png",
      "screenshots/screen11.fr.png",
      "screenshots/screen12.fr.png"
    ],
    "en": [
      "screenshots/screen1.en.png",
      "screenshots/screen2.en.png",
      "screenshots/screen3.en.png",
      "screenshots/screen4.en.png",
      "screenshots/screen5.en.png",
      "screenshots/screen6.en.png"
    ],
    "es": [
      "screenshots/screen1.es.png",
      "screenshots/screen2.es.png",
      "screenshots/screen3.es.png",
      "screenshots/screen4.es.png",
      "screenshots/screen5.es.png",
      "screenshots/screen6.es.png",
      "screenshots/screen7.es.png",
      "screenshots/screen8.es.png",
      "screenshots/screen9.es.png",
      "screenshots/screen10.es.png",
      "screenshots/screen11.es.png",
      "screenshots/screen12.es.png"
    ],
    "de": [
      "screenshots/screen1.de.png",
      "screenshots/screen2.de.png",
      "screenshots/screen3.de.png",
      "screenshots/screen4.de.png",
      "screenshots/screen5.de.png",
      "screenshots/screen6.de.png"
    ]
  }
}