{
  "locales": [
    "fr",
    "en",
    "es"
  ],
  "name": "Uppercup Football",
  "url": "http://uppercup-football.com/",
  "tagline": {
    "fr": "Un jeu de foot totalement barré qui se joue d'un doigt",
    "en": "Football like you've never played it before!",
    "es": "¡Juega a un fútbol de locos y gana la copa mundial!"
  },
  "description": {
    "fr": [
      "Affrontez les plus grandes équipes du monde à travers 100 niveaux tous plus déjantés les uns que les autres ! Chaque match est unique et vous réserve son lot de surprises débiles : ballon de rugby, mines, téléporteurs, glue…",
      "Tapotez, shootez et marquez des buts épiques dans ce jeu de foot développé par Motion Twin ! Prenez la tête d’une équipe et menez la à la victoire face aux plus talentueuses nations du monde.",
      "Vous et vos onze petits bonshommes allez voir du pays. Des jungles sud-américaines aux steppes enneigées du Groenland, et bien au delà, à mesure que vous taperez, taperez, et… taperez plus fort jusqu’à être couronnés Champions du Monde de football 2014 !"
    ],
    "en": [
      "One Touch Football madness in this crazy football game featuring land mines, unicorns and err Rugby balls!"
    ],
    "es": [
      "El fútbol más salvaje se juega con un solo dedo. Viaja con tu equipo por todo el mundo para enfrentarte a las selecciones más graciosas en 100 niveles. Te divertirás como nunca con las sorpresas increíbles que encontrarás en cada partido: bombas, teleportaciones y mucho más.",
      "Viaja con tu equipo por todo el mundo enfrentándote a las más graciosas selecciones en 100 niveles. Te divertirás como nunca en cada partido: un balón de rugby, un campo minado, teleportaciones y muchas otras sorpresas."
    ]
  },
  "favicon": false,
  "cover": "cover.png",
  "banner": false,
  "screenshots": {
    "fr": [
      "screenshots/screen1.fr.png",
      "screenshots/screen2.fr.png",
      "screenshots/screen3.fr.png",
      "screenshots/screen4.fr.png",
      "screenshots/screen5.fr.png",
      "screenshots/screen6.fr.png"
    ],
    "en": [
      "screenshots/screen1.en.png",
      "screenshots/screen2.en.png",
      "screenshots/screen3.en.png",
      "screenshots/screen4.en.png",
      "screenshots/screen5.en.png",
      "screenshots/screen6.en.png"
    ],
    "es": []
  }
}