{
  "locales": [
    "fr",
    "en",
    "es",
    "de"
  ],
  "name": "AlphaBounce",
  "url": "https://www.alphabounce.com/",
  "tagline": {
    "fr": "Découvrez le premier jeu de casse-briques - aventure au monde !",
    "en": "Our first interstellar brick-breaker",
    "es": "¡Nuestro primer juego rompe-ladrillos espacial!",
    "de": "Ein brick-breaking Spiel!"
  },
  "description": {
    "fr": [
      "<em>En l’année 16536, les prisons de l’empire inter-galactique débordent de détenus à perpétuité. Et vous en êtes un.</em>",
      "Croisement unique entre un casse-briques et un jeu d'aventure, AlphaBounce vous propose d’explorer un univers gigantesque composé de millions de niveaux captivants !"
    ],
    "en": [
      "<i>While we work on the all-new AlphaBounce 2, we invite you to try the original, which is one of our most popular games!</i>",
      "AlphaBounce is an awesome combination of a brick-breaker and an adventure game rolled into one! AlphaBounce allows you to explore an immense universe with millions of captivating levels!"
    ],
    "es": [
      "<i>Mientras preparamos la segunda versión, te invitamos a descubrir este juego que se ha convertido en uno de nuestros grandes éxitos.</i>",
      "AlphaBounce es una combinación perfecta de rompe-ladrillos y juego de aventura. ¡Explora un universo gigantesco con miles de niveles!"
    ],
    "de": [
      "AlphaBounce ist ein Breakout-Remake mit zahlreichen Rollenspiel-Elementen und einer unendlichen Anzahl an Levels."
    ]
  },
  "favicon": "favicon.ico",
  "cover": {
    "fr": "cover.fr-de.png",
    "en": "cover.en-es.png",
    "es": "cover.en-es.png",
    "de": "cover.fr-de.png"
  },
  "banner": false,
  "screenshots": {
    "fr": [
      "screenshots/game01.png",
      "screenshots/game02.png",
      "screenshots/game03.png",
      "screenshots/game04.png",
      "screenshots/game05.png",
      "screenshots/game06.png"
    ],
    "en": [
      "screenshots/game07.jpg",
      "screenshots/game08.jpg",
      "screenshots/game09.jpg",
      "screenshots/game10.jpg"
    ],
    "es": [
      "screenshots/game10.jpg",
      "screenshots/game07.jpg",
      "screenshots/game09.jpg"
    ],
    "de": [
      "screenshots/game-and-missions.de.jpg",
      "screenshots/game-ui.de.jpg",
      "screenshots/missions.de.jpg",
      "screenshots/mission-ok.de.jpg",
      "screenshots/rankings.de.jpg",
      "screenshots/inventory.de.png"
    ]
  }
}