{
  "locales": [
    "fr",
    "en",
    "es",
    "de"
  ],
  "name": "Teacher Story",
  "url": "http://teacher-story.com/",
  "tagline": {
    "fr": "Un jeu tactical RPG de survie en milieu scolaire !",
    "en": "Good luck! You'll need it!",
    "es": "El juego de escuela donde el profesor eres tú",
    "de": "Good luck! You'll need it!"
  },
  "description": {
    "fr": [
      "Cette fois-ci vous incarnez le rôle du prof, le légendaire James Norray, remplaçant de l’extrême.",
      "Vous affronterez des enfants prêts à tout pour vous faire péter les plombs. Ils ont déjà eu la peau de leurs profs précédents..."
    ],
    "en": [
      "Test your teaching skills in a classroom in CHAOS!",
      "Are you cut out for the most dangerous job in the world?"
    ],
    "es": [
      "Este es el oficio más peligroso del mundo.",
      "Vive las experiencias de un profesor en un salón de clases fuera de control."
    ],
    "de": [
      "Test your teaching skills in a classroom in CHAOS!",
      "Coming VERY SOON!"
    ]
  },
  "favicon": "favicon.ico",
  "cover": {
    "fr": "cover.fr.png",
    "en": "cover.png",
    "es": "cover.png",
    "de": "cover.png"
  },
  "banner": false,
  "screenshots": {
    "fr": [
      "screenshots/screen1.fr.png",
      "screenshots/screen2.fr.png",
      "screenshots/screen3.fr.png",
      "screenshots/screen4.fr.png",
      "screenshots/screen5.fr.png",
      "screenshots/screen6.fr.png",
      "screenshots/screen7.fr.png",
      "screenshots/screen8.fr.png"
    ],
    "en": [
      "screenshots/screen1.en.png",
      "screenshots/screen2.en.png",
      "screenshots/screen3.en.png",
      "screenshots/screen4.en.png",
      "screenshots/screen5.en.png"
    ],
    "es": [
      "screenshots/screen1.es.png",
      "screenshots/screen2.es.png",
      "screenshots/screen3.es.png",
      "screenshots/screen4.es.png",
      "screenshots/screen5.es.png"
    ],
    "de": []
  }
}