{
  "locales": [
    "fr"
  ],
  "name": "Intrusion",
  "url": "http://intrusion.muxxu.com/",
  "tagline": "Simulation de hacker... C'est VOUS qui avez le contrôle !",
  "description": [
    "Plongez dans la scène underground la plus fermée du réseau. Oubliez toutes les règles, c'est VOUS qui avez le contrôle."
  ],
  "favicon": "favicon.ico",
  "cover": "cover.png",
  "banner": false,
  "screenshots": [
    "screenshots/intrusion.jpg",
    "screenshots/game1.jpg",
    "screenshots/game2.jpg",
    "screenshots/email.jpg",
    "screenshots/viruses.jpg"
  ]
}