{
  "locales": [
    "fr"
  ],
  "name": "MotionBall 2",
  "url": "http://mb2.muxxu.com/",
  "tagline": "Jeu d'action et réflexion à la fois ! Sortez du labyrinthe !",
  "description": [
    "Explorez de véritables labyrinthes en vous frayant un chemin avec la balle à travers différents pièges !"
  ],
  "favicon": "favicon.ico",
  "cover": "cover.png",
  "banner": false,
  "screenshots": [
    "screenshots/screen1.fr.png",
    "screenshots/screen2.fr.png",
    "screenshots/screen3.fr.png"
  ]
}