{
  "locales": [
    "fr",
    "en",
    "es",
    "de"
  ],
  "name": "Kingdom",
  "url": {
    "fr": "http://kingdom.muxxu.com/",
    "en": "http://kingdom.en.muxxu.com/",
    "es": "http://kingdom.es.muxxu.com/",
    "de": "http://kingdom.de.muxxu.com/"
  },
  "tagline": {
    "fr": "Jeu de gestion et de conquête multijoueur. Devenez empereur !",
    "en": "Conquer the map. Enslave your conquests. Become an Emperor!",
    "es": "Conquista y expande tu imperio ¡haz historia!",
    "de": "Ein Ritterspiel um Verwaltung und Eroberung eines Weltreiches"
  },
  "description": {
    "fr": [
      "Résistez aux invasions et famines, nouez des alliances avec l'art de la diplomatie et dirigez vos soldats et généraux vers la conquête absolue de votre région.",
      "Mais vous n'êtes pas le seul ! Des dizaines de joueurs seront là aussi... à vous de trouver les meilleurs alliés pour faire face à vos pires ennemis. Attention aussi aux trahisons !"
    ],
    "en": [
      "Resist invasion and famine, cement alliances with diplomacy and lead your soldiers and generals into battle to achieve total domination of your region. However, you are not alone! There are dozens of other players there too... It's all down to you to find the best and most powerful allies to destroy your worst enemies. Beware of treachery and treason!"
    ],
    "es": [
      "Estamos en la Edad Media y tu destino es ser más que un rey...¡un Emperador!",
      "Conquista los territorios de otros caballeros y expande tu imperio con la ayuda de todo tu ejército. Tu pueblo está contigo, no les defraudes. ¡Juega a Kingdom aquí en Twinoid!"
    ],
    "de": [
      "Kingdom ist ein Ritterspiel, in dem es um die Verwaltung und Eroberung eines Reiches geht. Sei anderen Spielern voraus und erschaffe ein Weltreich!"
    ]
  },
  "favicon": "favicon.ico",
  "cover": "cover.png",
  "banner": "banner.jpg",
  "screenshots": {
    "fr": [
      "screenshots/screen1.fr.png",
      "screenshots/screen2.fr.png",
      "screenshots/screen3.fr.png",
      "screenshots/screen4.fr.png",
      "screenshots/screen5.fr.png"
    ],
    "en": [
      "screenshots/screen1.en.png",
      "screenshots/screen2.en.png",
      "screenshots/screen3.en.png"
    ],
    "es": [
      "screenshots/screen1.es.png",
      "screenshots/screen2.es.png",
      "screenshots/screen3.es.png"
    ],
    "de": [
      "screenshots/screen1.de.png",
      "screenshots/screen2.de.png",
      "screenshots/screen3.de.png",
      "screenshots/screen4.de.png",
      "screenshots/screen5.de.png",
      "screenshots/screen6.de.png"
    ]
  }
}