{
  "locales": [
    "fr",
    "en",
    "es",
    "de"
  ],
  "name": {
    "fr": "Hordes",
    "en": "Die2Nite",
    "es": "Zombinoia",
    "de": "Die Verdammten"
  },
  "url": {
    "fr": "http://www.hordes.fr/",
    "en": "http://www.die2nite.com/",
    "es": "http://www.zombinoia.com/",
    "de": "http://www.dieverdammten.de/"
  },
  "tagline": {
    "fr": "Jeu de survie gratuit et coopératif contre des zombies",
    "en": "The zombie survival game",
    "es": "Juego gratuito de supervivencia en un mundo de zombies",
    "de": "Vertraue niemanden. Es könnte sich um einen Ghul handeln."
  },
  "description": {
    "fr": [
      "Hordes est le premier jeu de survie gratuit dans un monde hostile peuplé de zombies !",
      "<strong>Jouez en communauté ou vivez en solitaire...</strong>Parcourez l'Outre-Monde à la recherche des ressources nécessaires pour contenir les hordes de zombies qui peuplent ce monde apocalyptique et tentez de survivre le plus longtemps possible."
    ],
    "en": [
      "Die2Nite is the first free zombie survival game set in a hostile world inhabited by the living dead!",
      "<strong>Play with the community or live (and die) alone...</strong>Travel the World Beyond in search of the resources you need to keep the zombie hordes who populate this post-apocalyptic world at bay and try to survive for as long as you possibly can."
    ],
    "es": [
      "El mejor MMORPG gratuito de zombies está en Twinoid",
      "Vives en un pueblo en medio del desierto y una turba de zombies devorará a los imprudentes cada noche, sin mencionar que tus propios compañeros estarán dispuestos a traicionarte para sobrevivir. Pero recuerda, hay un héroe dentro de ti.",
      "Zombinoia combina cooperación, estrategia, intrigas y varias temporadas con novedades."
    ],
    "de": [
      "<em>Die Verdammten</em> ist ein kooperatives Zombie-Survival-Game, das in einer postapokalyptischen Welt voller Untoter spielt! ist ein kooperatives Zombie-Survival-Game, das in einer postapokalyptischen Welt voller Untoter spielt!"
    ]
  },
  "favicon": "favicon.ico",
  "cover": {
    "fr": "cover.fr.png",
    "en": "cover.en.png",
    "es": "cover.es.png",
    "de": "cover.de.png"
  },
  "banner": {
    "fr": "banner.fr.jpg",
    "en": "banner.en.jpg",
    "es": "banner.es.jpg",
    "de": "banner.de.jpg"
  },
  "screenshots": {
    "fr": [
      "screenshots/screen1.fr.png",
      "screenshots/screen2.fr.png",
      "screenshots/screen3.fr.png",
      "screenshots/screen4.fr.png",
      "screenshots/screen5.fr.png",
      "screenshots/screen6.fr.png"
    ],
    "en": [
      "screenshots/screen1.en.png",
      "screenshots/screen2.en.png",
      "screenshots/screen3.en.png",
      "screenshots/screen4.en.png",
      "screenshots/screen5.en.png",
      "screenshots/screen6.en.png"
    ],
    "es": [
      "screenshots/screen1.es.png",
      "screenshots/screen2.es.png",
      "screenshots/screen3.es.png",
      "screenshots/screen4.es.png",
      "screenshots/screen5.es.png"
    ],
    "de": [
      "screenshots/screen1.de.png",
      "screenshots/screen2.de.png",
      "screenshots/screen3.de.png",
      "screenshots/screen4.de.png",
      "screenshots/screen5.de.png",
      "screenshots/screen6.de.png"
    ]
  }
}